\relax 
\@writefile{toc}{\contentsline {section}{\numberline {1}Make the LCD paper insensitive}{1}}
\@writefile{toc}{\contentsline {subsection}{\numberline {1.1}Use color that are in the correct spectrum}{1}}
\@writefile{toc}{\contentsline {subsection}{\numberline {1.2}Block any activity that would brake full screen mode}{1}}
\@writefile{toc}{\contentsline {subsubsection}{\numberline {1.2.1}Block incoming calls}{1}}
\@writefile{lof}{\contentsline {figure}{\numberline {1}{\ignorespaces Ilford RC paper sensitivity.}}{2}}
\newlabel{fig_ilfordpaper}{{1}{2}}
\@writefile{lof}{\contentsline {figure}{\numberline {2}{\ignorespaces RGB as a function of wavelength.}}{2}}
\newlabel{fig_RGBwl}{{2}{2}}
\@writefile{toc}{\contentsline {subsubsection}{\numberline {1.2.2}Create an alternative answering screen}{3}}
\@writefile{toc}{\contentsline {section}{\numberline {2}User interface Design}{3}}
\@writefile{toc}{\contentsline {subsection}{\numberline {2.1}Functionality}{3}}
\@writefile{toc}{\contentsline {subsection}{\numberline {2.2}Time Count}{3}}
\@writefile{toc}{\contentsline {subsubsection}{\numberline {2.2.1}Font}{3}}
\@writefile{toc}{\contentsline {subsection}{\numberline {2.3}F-Stop Timing}{4}}
\@writefile{toc}{\contentsline {subsection}{\numberline {2.4}Print sequence logging}{4}}
\@writefile{toc}{\contentsline {section}{\numberline {3}Hardware}{4}}
